{
  "images" : [
    {
      "extent" : "full-screen",
      "size" : "320x480",
      "idiom" : "iphone",
      "filename" : "LaunchImage-700@2x~iphone.png",
      "minimum-system-version" : "7.0",
      "orientation" : "portrait",
      "scale" : "2x"
    },
    {
      "extent" : "full-screen",
      "size" : "320x568",
      "idiom" : "iphone",
      "filename" : "LaunchImage-700-568h@2x~iphone.png",
      "minimum-system-version" : "7.0",
      "orientation" : "portrait",
      "subtype" : "retina4",
      "scale" : "2x"
    },
    {
      "extent" : "full-screen",
      "size" : "1024x768",
      "idiom" : "ipad",
      "filename" : "LaunchImage-700-Landscape~ipad.png",
      "minimum-system-version" : "7.0",
      "orientation" : "landscape",
      "scale" : "1x"
    },
    {
      "extent" : "full-screen",
      "size" : "1024x768",
      "idiom" : "ipad",
      "filename" : "LaunchImage-700-Landscape@2x~ipad.png",
      "minimum-system-version" : "7.0",
      "orientation" : "landscape",
      "scale" : "2x"
    },
    {
      "extent" : "full-screen",
      "size" : "768x1024",
      "idiom" : "ipad",
      "filename" : "LaunchImage-700-Portrait~ipad.png",
      "minimum-system-version" : "7.0",
      "orientation" : "portrait",
      "scale" : "1x"
    },
    {
      "extent" : "full-screen",
      "size" : "768x1024",
      "idiom" : "ipad",
      "filename" : "LaunchImage-700-Portrait@2x~ipad.png",
      "minimum-system-version" : "7.0",
      "orientation" : "portrait",
      "scale" : "2x"
    },
    {
      "size" : "320x480",
      "idiom" : "iphone",
      "filename" : "LaunchImage@2x.png",
      "extent" : "full-screen",
      "scale" : "2x",
      "orientation" : "portrait"
    },
    {
      "size" : "320x480",
      "idiom" : "iphone",
      "filename" : "LaunchImage.png",
      "extent" : "full-screen",
      "scale" : "1x",
      "orientation" : "portrait"
    },
    {
      "extent" : "full-screen",
      "size" : "320x568",
      "idiom" : "iphone",
      "filename" : "LaunchImage-568h@2x.png",
      "subtype" : "retina4",
      "orientation" : "portrait",
      "scale" : "2x"
    },
    {
      "size" : "768x1004",
      "idiom" : "ipad",
      "filename" : "LaunchImage-Portrait~ipad.png",
      "extent" : "to-status-bar",
      "scale" : "1x",
      "orientation" : "portrait"
    },
    {
      "size" : "768x1004",
      "idiom" : "ipad",
      "filename" : "LaunchImage-Portrait@2x~ipad.png",
      "extent" : "to-status-bar",
      "scale" : "2x",
      "orientation" : "portrait"
    },
    {
      "size" : "1024x748",
      "idiom" : "ipad",
      "filename" : "LaunchImage-Landscape~ipad.png",
      "extent" : "to-status-bar",
      "scale" : "1x",
      "orientation" : "landscape"
    },
    {
      "size" : "1024x748",
      "idiom" : "ipad",
      "filename" : "LaunchImage-Landscape@2x~ipad.png",
      "extent" : "to-status-bar",
      "scale" : "2x",
      "orientation" : "landscape"
    },
    {
      "size" : "768x1024",
      "idiom" : "ipad",
      "filename" : "LaunchImage-1024-Portrait~ipad.png",
      "extent" : "full-screen",
      "scale" : "1x",
      "orientation" : "portrait"
    },
    {
      "size" : "768x1024",
      "idiom" : "ipad",
      "filename" : "LaunchImage-1024-Portrait@2x~ipad.png",
      "extent" : "full-screen",
      "scale" : "2x",
      "orientation" : "portrait"
    },
    {
      "size" : "1024x768",
      "idiom" : "ipad",
      "filename" : "LaunchImage-768-Landscape~ipad.png",
      "extent" : "full-screen",
      "scale" : "1x",
      "orientation" : "landscape"
    },
    {
      "size" : "1024x768",
      "idiom" : "ipad",
      "filename" : "LaunchImage-768-Landscape@2x~ipad.png",
      "extent" : "full-screen",
      "scale" : "2x",
      "orientation" : "landscape"
    }
  ],
  "info" : {
    "version" : 1,
    "author" : "xcode"
  }
}